<svg width="14" height="14" viewBox="0 0 14 14" fill="none" xmlns="http://www.w3.org/2000/svg">
<path fill-rule="evenodd" clip-rule="evenodd" d="M7 14C10.866 14 14 10.866 14 7C14 3.13401 10.866 0 7 0C3.13401 0 0 3.13401 0 7C0 10.866 3.13401 14 7 14ZM7.5 3.00001C7.5 2.72387 7.27614 2.50001 7 2.50001C6.72386 2.50001 6.5 2.72387 6.5 3.00001V7.50001C6.5 7.63262 6.55268 7.75979 6.64645 7.85356L9.64645 10.8536C9.84171 11.0488 10.1583 11.0488 10.3536 10.8536C10.5488 10.6583 10.5488 10.3417 10.3536 10.1465L7.5 7.2929V3.00001Z" fill="white"/>
</svg>
