<?xml version="1.0" encoding="utf-8"?>
<!-- Generator: Adobe Illustrator 22.1.0, SVG Export Plug-In . SVG Version: 6.00 Build 0)  -->
<svg version="1.1" id="Layer_1" xmlns="http://www.w3.org/2000/svg" xmlns:xlink="http://www.w3.org/1999/xlink" x="0px" y="0px"
	 viewBox="0 0 177 157" style="enable-background:new 0 0 177 157;" xml:space="preserve">
<style type="text/css">
	.st0{fill:#FFFFFF;}
	.st1{fill:#0071BC;}
	.st2{fill:#22B573;}
</style>
<g>
	<g>
		<path class="st1" d="M113.8,45.7c-0.3,0-0.5-0.1-0.7-0.3l-4.7-4.7c-0.4-0.4-0.4-1,0-1.4l3.6-3.6c1-1,2.8-1,3.8,0l2.3,2.3
			c1,1,1,2.7,0,3.8l-3.6,3.6C114.3,45.6,114,45.7,113.8,45.7z M110.5,40l3.3,3.3l2.8-2.8c0.3-0.3,0.3-0.7,0-0.9l-2.3-2.3
			c0,0,0,0,0,0c-0.2-0.2-0.7-0.2-0.9,0L110.5,40z"/>
	</g>
	<g>
		<path class="st2" d="M111.9,56.8c-0.1,0-0.3,0-0.4-0.1c-0.5-0.2-0.7-0.8-0.5-1.3l3.8-8.3l-8.2-8.2l-8.3,3.8
			c-0.5,0.2-1.1,0-1.3-0.5c-0.2-0.5,0-1.1,0.5-1.3l8.9-4.1c0.4-0.2,0.8-0.1,1.1,0.2l9.2,9.2c0.3,0.3,0.4,0.7,0.2,1.1l-4.1,8.9
			C112.6,56.6,112.3,56.8,111.9,56.8z"/>
	</g>
	<g>
		<path class="st1" d="M72.8,109.9c-1.1,0-2.2-0.4-3-1.2L45.1,84c-1.7-1.7-1.7-4.4,0-6l46.1-38.4c1.6-1.6,4.3-1.6,6,0.1l17,17
			c1.7,1.7,1.7,4.4,0,6l-38.3,46C75,109.5,73.9,109.9,72.8,109.9z M94.1,40.4c-0.6,0-1.2,0.2-1.6,0.7L46.4,79.4
			c-0.8,0.8-0.8,2.2,0.1,3.1l24.7,24.7c0.9,0.9,2.3,0.9,3.2,0l38.3-46c0.9-0.9,0.9-2.4,0.1-3.3l-17-17
			C95.3,40.6,94.7,40.4,94.1,40.4z"/>
	</g>
	<g>
		<g>
			<path class="st2" d="M76.3,78.5c-0.3,0-0.5-0.1-0.7-0.3c-0.4-0.4-0.4-1,0-1.4L86,66.3c0.4-0.4,1-0.4,1.4,0s0.4,1,0,1.4L77,78.2
				C76.8,78.4,76.6,78.5,76.3,78.5z"/>
		</g>
		<g>
			<path class="st2" d="M86.8,78.5c-0.3,0-0.5-0.1-0.7-0.3L75.6,67.7c-0.4-0.4-0.4-1,0-1.4s1-0.4,1.4,0l10.5,10.5
				c0.4,0.4,0.4,1,0,1.4C87.3,78.4,87,78.5,86.8,78.5z"/>
		</g>
	</g>
</g>
</svg>
