<svg xmlns="http://www.w3.org/2000/svg" width="8.532" height="8.532" viewBox="0 0 8.532 8.532">
  <path id="Path_2315" data-name="Path 2315" d="M0,0V4.635H4.432" transform="translate(4.194 7.472) rotate(-135)" fill="none" stroke="#22b573" stroke-linecap="round" stroke-linejoin="bevel" stroke-width="1.5"/>
</svg>
