<svg width="170" height="155" xmlns="http://www.w3.org/2000/svg">
 <style type="text/css">.st0{fill:#FFFFFF;}
	.st1{fill:#0071BC;}
	.st2{fill:#22B573;}</style>

 <g>
  <title>background</title>
  <rect fill="none" id="canvas_background" height="402" width="582" y="-1" x="-1"/>
 </g>
 <g>
  <title>Layer 1</title>
  <g id="svg_1">
   <g id="svg_2">
    <path id="svg_3" d="m131.5,74.3c-0.4,0 -0.8,-0.1 -1.1,-0.4l-35.4,-35.4c-1.6,-1.6 -3.7,-2.5 -6,-2.5c-2.3,0 -4.4,0.9 -6,2.5l-35.4,35.4c-0.6,0.6 -1.5,0.6 -2.1,0s-0.6,-1.5 0,-2.1l35.4,-35.4c2.1,-2.2 5,-3.4 8.1,-3.4s6,1.2 8.1,3.4l35.4,35.4c0.6,0.6 0.6,1.5 0,2.1c-0.3,0.3 -0.7,0.4 -1,0.4z" class="st2"/>
   </g>
   <g id="svg_4">
    <path id="svg_5" d="m111.9,111l-45.8,0c-5.9,0 -10.7,-4.8 -10.7,-10.7l0,-27.4c0,-0.8 0.7,-1.5 1.5,-1.5s1.5,0.7 1.5,1.5l0,27.5c0,4.2 3.4,7.7 7.7,7.7l45.8,0c4.2,0 7.7,-3.4 7.7,-7.7l0,-27.5c0,-0.8 0.7,-1.5 1.5,-1.5s1.5,0.7 1.5,1.5l0,27.5c-0.1,5.8 -4.9,10.6 -10.7,10.6z" class="st1"/>
   </g>
   <g id="svg_6">
    <path id="svg_7" d="m95.7,97.7l-13.4,0c-3.6,0 -6.5,-2.9 -6.5,-6.5l0,-13.3c0,-3.6 2.9,-6.5 6.5,-6.5l13.3,0c3.6,0 6.5,2.9 6.5,6.5l0,13.3c0.1,3.6 -2.9,6.5 -6.4,6.5zm-13.4,-23.3c-1.9,0 -3.5,1.6 -3.5,3.5l0,13.3c0,1.9 1.6,3.5 3.5,3.5l13.3,0c1.9,0 3.5,-1.6 3.5,-3.5l0,-13.3c0,-1.9 -1.6,-3.5 -3.5,-3.5l-13.3,0z" class="st2"/>
   </g>
  </g>
 </g>
</svg>