<svg xmlns="http://www.w3.org/2000/svg" width="25.537" height="28.081" viewBox="0 0 25.537 28.081">
  <g id="moon" transform="translate(-2.9)">
    <g id="Group_1104" data-name="Group 1104" transform="translate(2.9)">
      <g id="Group_1103" data-name="Group 1103">
        <path id="Path_2055" data-name="Path 2055" d="M14.4,28.081A14.04,14.04,0,1,0,14.4,0a16.775,16.775,0,0,0-5.42.906l-.914.344.865.455a11.369,11.369,0,0,1,6.347,9.7A10.982,10.982,0,0,1,4.3,22.377H4l-1.1-.026.631.746A14.352,14.352,0,0,0,14.4,28.081ZM16.15,11.408a12.106,12.106,0,0,0-5.94-9.977A16.8,16.8,0,0,1,14.4.878a13.163,13.163,0,1,1,0,26.326,13.528,13.528,0,0,1-9.547-3.961A11.86,11.86,0,0,0,16.15,11.408Z" transform="translate(-2.9)" fill="#fff"/>
      </g>
    </g>
  </g>
</svg>
