<svg width="78" height="75" viewBox="0 0 78 75" fill="none" xmlns="http://www.w3.org/2000/svg">
<path d="M37.6 68.6999H12.7999C9.09995 68.6999 6.19995 65.6999 6.19995 62.0999V12.3999C6.19995 11.7999 6.59995 11.3999 7.19995 11.3999H69.7C70.3 11.3999 70.7 11.7999 70.7 12.3999V34.8999C70.7 35.4999 70.3 35.8999 69.7 35.8999C69.1 35.8999 68.7 35.4999 68.7 34.8999V13.3999H8.19995V61.9999C8.19995 64.5999 10.2999 66.5999 12.7999 66.5999H37.6C38.2 66.5999 38.6 66.9999 38.6 67.5999C38.6 68.1999 38.2 68.6999 37.6 68.6999Z" fill="#22B573"/>
<path d="M54.0001 30.4H22.9001C20.5001 30.4 18.6001 28.5 18.6001 26.1V25.3C18.6001 22.9 20.5001 21 22.9001 21H54.1001C56.5001 21 58.4001 22.9 58.4001 25.3V26.1C58.3001 28.5 56.4001 30.4 54.0001 30.4ZM22.9001 23C21.6001 23 20.6001 24 20.6001 25.3V26.1C20.6001 27.4 21.6001 28.4 22.9001 28.4H54.1001C55.4001 28.4 56.4001 27.4 56.4001 26.1V25.3C56.4001 24 55.4001 23 54.1001 23H22.9001Z" fill="#22B573"/>
<path d="M37.7001 45.1H22.9001C20.5001 45.1 18.6001 43.1999 18.6001 40.7999V40C18.6001 37.6 20.5001 35.7 22.9001 35.7H37.7001C40.1001 35.7 42.0001 37.6 42.0001 40V40.7999C42.0001 43.1999 40.1001 45.1 37.7001 45.1ZM22.9001 37.7C21.6001 37.7 20.6001 38.7 20.6001 40V40.7999C20.6001 42.0999 21.6001 43.1 22.9001 43.1H37.7001C39.0001 43.1 40.0001 42.0999 40.0001 40.7999V40C40.0001 38.7 39.0001 37.7 37.7001 37.7H22.9001Z" fill="#0071BC"/>
<path d="M27.5 59.7001H22.8C20.4 59.7001 18.5 57.8 18.5 55.4V54.6001C18.5 52.2001 20.4 50.3 22.8 50.3H27.5C29.9 50.3 31.8 52.2001 31.8 54.6001V55.4C31.8 57.8 29.9 59.7001 27.5 59.7001ZM22.9 52.3C21.6 52.3 20.6 53.3001 20.6 54.6001V55.4C20.6 56.7 21.6 57.7001 22.9 57.7001H27.6C28.9 57.7001 29.9 56.7 29.9 55.4V54.6001C29.9 53.3001 28.9 52.3 27.6 52.3H22.9Z" fill="#22B573"/>
<path d="M74.4 13.4H2.5C1.1 13.4 0 12.3 0 10.9V5.9C0 2.7 2.6 0 5.9 0H71.2C74.4 0 77.1 2.6 77.1 5.9V10.9C76.9 12.3 75.8 13.4 74.4 13.4ZM5.8 2C3.7 2 1.9 3.7 1.9 5.9V10.9C1.9 11.2 2.1 11.4 2.4 11.4H74.3C74.6 11.4 74.8 11.2 74.8 10.9V5.9C74.8 3.8 73.1 2 70.9 2H5.8V2Z" fill="#0071BC"/>
<path d="M59.0001 74.3C49.1001 74.3 41.1001 66.3 41.1001 56.4C41.1001 46.5 49.1001 38.5 59.0001 38.5C68.9001 38.5 76.9001 46.5 76.9001 56.4C76.9001 66.3 68.9001 74.3 59.0001 74.3ZM59.0001 40.5C50.2001 40.5 43.1001 47.6 43.1001 56.4C43.1001 65.2 50.2001 72.3 59.0001 72.3C67.8001 72.3 74.9001 65.2 74.9001 56.4C74.9001 47.6 67.8001 40.5 59.0001 40.5Z" fill="#0071BC"/>
<path d="M68.5001 57.4001H51.3C50.7 57.4001 50.3 57.0001 50.3 56.4001C50.3 55.8001 50.7 55.4001 51.3 55.4001H68.5001C69.1001 55.4001 69.5001 55.8001 69.5001 56.4001C69.5001 57.0001 69.1001 57.4001 68.5001 57.4001Z" fill="#22B573"/>
<path d="M55.6 63.5001C55.3 63.5001 55.1 63.4 54.9 63.2L48.8 57.1C48.6 56.9 48.5 56.7 48.5 56.4C48.5 56.1 48.6 55.9 48.8 55.7L54.9 49.6C55.3 49.2 55.9 49.2 56.3 49.6C56.7 50 56.7 50.6001 56.3 51.0001L50.9 56.4L56.3 61.8C56.7 62.2 56.7 62.8 56.3 63.2C56.1 63.4 55.9 63.5001 55.6 63.5001Z" fill="#22B573"/>
</svg>
