<svg width="78" height="53" viewBox="0 0 78 53" fill="none" xmlns="http://www.w3.org/2000/svg">
<path d="M15.4 27.3999H1C0.4 27.3999 0 26.9999 0 26.3999C0 25.7999 0.4 25.3999 1 25.3999H15.4C16 25.3999 16.4 25.7999 16.4 26.3999C16.4 26.9999 15.9 27.3999 15.4 27.3999Z" fill="#0071BC"/>
<path d="M50.0001 27.3999H35.6001C35.0001 27.3999 34.6001 26.9999 34.6001 26.3999C34.6001 25.7999 35.0001 25.3999 35.6001 25.3999H50.0001C50.6001 25.3999 51.0001 25.7999 51.0001 26.3999C51.0001 26.9999 50.6001 27.3999 50.0001 27.3999Z" fill="#0071BC"/>
<path d="M15.4 21.7998H1C0.4 21.7998 0 21.3998 0 20.7998C0 20.1998 0.4 19.7998 1 19.7998H15.4C16 19.7998 16.4 20.1998 16.4 20.7998C16.4 21.3998 15.9 21.7998 15.4 21.7998Z" fill="#0071BC"/>
<path d="M50.0001 21.7998H35.6001C35.0001 21.7998 34.6001 21.3998 34.6001 20.7998C34.6001 20.1998 35.0001 19.7998 35.6001 19.7998H50.0001C50.6001 19.7998 51.0001 20.1998 51.0001 20.7998C51.0001 21.3998 50.6001 21.7998 50.0001 21.7998Z" fill="#0071BC"/>
<path d="M25.7001 34.7999C19.6001 34.7999 14.6001 29.7999 14.6001 23.5999C14.6001 17.3999 19.6001 12.3999 25.7001 12.3999C31.8001 12.3999 36.8001 17.3999 36.8001 23.5999C36.8001 29.7999 31.8001 34.7999 25.7001 34.7999ZM25.7001 14.4999C20.7001 14.4999 16.6001 18.5999 16.6001 23.6999C16.6001 28.7999 20.7001 32.8999 25.7001 32.8999C30.7001 32.8999 34.8001 28.7999 34.8001 23.6999C34.8001 18.5999 30.7001 14.4999 25.7001 14.4999Z" fill="#22B573"/>
<path d="M24.1999 28.1L20.5 24.3C20.1 23.9 20.1 23.3 20.5 22.9C20.9 22.5 21.4999 22.5 21.8999 22.9L24.1999 25.2L29.5999 19.8C29.9999 19.4 30.6 19.4 31 19.8C31.4 20.2 31.4 20.8 31 21.2L24.1999 28.1Z" fill="#0071BC"/>
<path d="M50.4 47.3H7.9C3.6 47.3 0 43.8 0 39.4V5.2C0 2.3 2.3 0 5.2 0H44.6C48.3 0 51.3 3 51.3 6.7V46.4C51.4 46.9 50.9 47.3 50.4 47.3ZM5.3 1.9C3.5 1.9 2.1 3.4 2.1 5.1V39.4C2.1 42.6 4.7 45.3 8 45.3H49.5V6.6C49.5 4 47.4 1.9 44.8 1.9H5.3Z" fill="#22B573"/>
<path d="M72.8999 47.3H50.3999C49.7999 47.3 49.3999 46.9 49.3999 46.3V18C49.3999 17.4 49.7999 17 50.3999 17H66.5999C72.3999 17 77.0999 21.7 77.0999 27.5V43.1C77.0999 45.4 75.1999 47.3 72.8999 47.3ZM51.3999 45.3H72.8999C74.0999 45.3 75.0999 44.3 75.0999 43.1V27.5C75.0999 22.8 71.2999 19 66.5999 19H51.3999V45.3Z" fill="#22B573"/>
<path d="M16.7999 51.6999C19.7822 51.6999 22.1999 49.2822 22.1999 46.2999C22.1999 43.3176 19.7822 40.8999 16.7999 40.8999C13.8176 40.8999 11.3999 43.3176 11.3999 46.2999C11.3999 49.2822 13.8176 51.6999 16.7999 51.6999Z" fill="white"/>
<path d="M16.7999 52.6999C13.2999 52.6999 10.3999 49.7999 10.3999 46.2999C10.3999 42.7999 13.2999 39.8999 16.7999 39.8999C20.2999 39.8999 23.1999 42.7999 23.1999 46.2999C23.1999 49.7999 20.2999 52.6999 16.7999 52.6999ZM16.7999 41.8999C14.3999 41.8999 12.3999 43.8999 12.3999 46.2999C12.3999 48.6999 14.3999 50.6999 16.7999 50.6999C19.1999 50.6999 21.1999 48.6999 21.1999 46.2999C21.1999 43.8999 19.1999 41.8999 16.7999 41.8999Z" fill="#0071BC"/>
<path d="M63.2001 52.0001C66.2929 52.0001 68.8001 49.4481 68.8001 46.3001C68.8001 43.1521 66.2929 40.6001 63.2001 40.6001C60.1073 40.6001 57.6001 43.1521 57.6001 46.3001C57.6001 49.4481 60.1073 52.0001 63.2001 52.0001Z" fill="white"/>
<path d="M63.2001 53.0001C59.5001 53.0001 56.6001 50.0001 56.6001 46.3001C56.6001 42.6001 59.6001 39.6001 63.2001 39.6001C66.9001 39.6001 69.8001 42.6001 69.8001 46.3001C69.8001 50.0001 66.9001 53.0001 63.2001 53.0001ZM63.2001 41.6001C60.6001 41.6001 58.6001 43.7001 58.6001 46.3001C58.6001 48.9001 60.7001 51.0001 63.2001 51.0001C65.8001 51.0001 67.8001 48.9001 67.8001 46.3001C67.8001 43.7001 65.8001 41.6001 63.2001 41.6001Z" fill="#0071BC"/>
<path d="M67.4 35.2C66.9 35.2 66.4 35.0999 66 34.7999L56 29.3999C54.8 28.6999 54.2 27.3999 54.5 25.9999C54.8 24.5999 56 23.7 57.4 23.7H66.2C68.5 23.7 70.3 25.5999 70.3 27.8999V32.0999C70.3 33.1999 69.7 34.2 68.8 34.7C68.5 35 68 35.2 67.4 35.2ZM57.5 25.7C56.8 25.7 56.6 26.2999 56.5 26.4999C56.4 26.8999 56.5 27.4 57 27.7L67 33.0999C67.5 33.2999 67.8 33.1999 68 33.0999C68.2 32.9999 68.5 32.7 68.5 32.2V27.8999C68.5 26.6999 67.5 25.7 66.4 25.7H57.5Z" fill="#0071BC"/>
</svg>
