<?xml version="1.0" encoding="utf-8"?>
<!-- Generator: Adobe Illustrator 22.1.0, SVG Export Plug-In . SVG Version: 6.00 Build 0)  -->
<svg version="1.1" id="Layer_1" xmlns="http://www.w3.org/2000/svg" xmlns:xlink="http://www.w3.org/1999/xlink" x="0px" y="0px"
	 viewBox="0 0 170 157" style="enable-background:new 0 0 170 157;" xml:space="preserve">
<style type="text/css">
	.st0{fill:#FFFFFF;}
	.st1{fill:#0071BC;}
	.st2{fill:#22B573;}
</style>
<g>
	<g>
		<path class="st1" d="M80.8,41.1h-3.6c-0.6,0-1-0.4-1-1s0.4-1,1-1h3.6c0.6,0,1,0.4,1,1S81.4,41.1,80.8,41.1z"/>
	</g>
	<g>
		<path class="st2" d="M81.2,45.9h-8.9c-0.6,0-1-0.4-1-1v-7.3c0-1.5,1.2-2.6,2.6-2.6h5.7c1.5,0,2.6,1.2,2.6,2.6v7.3
			C82.2,45.4,81.8,45.9,81.2,45.9z M73.3,43.9h6.9v-6.3c0-0.3-0.3-0.6-0.6-0.6h-5.7c-0.3,0-0.6,0.3-0.6,0.6V43.9z"/>
	</g>
	<g>
		<path class="st1" d="M87.1,54.8H66.2v-7.9c0-1.7,1.4-3.1,3.1-3.1H84c1.7,0,3.1,1.4,3.1,3.1V54.8z M68.2,52.8h16.9v-5.9
			c0-0.6-0.5-1.1-1.1-1.1H69.3c-0.6,0-1.1,0.5-1.1,1.1V52.8z"/>
	</g>
	<g>
		<rect x="53.5" y="61.3" class="st1" width="45.8" height="2"/>
	</g>
	<g>
		<rect x="53.5" y="99.5" class="st1" width="45.8" height="2"/>
	</g>
	<g>
		<path class="st2" d="M92.3,109.9H60.9c-4.7,0-8.5-3.8-8.5-8.5V61.3c0-4.7,3.8-8.5,8.5-8.5h31.4c4.7,0,8.5,3.8,8.5,8.5v40.2
			C100.8,106.1,97,109.9,92.3,109.9z M60.9,54.8c-3.6,0-6.5,2.9-6.5,6.5v40.2c0,3.6,2.9,6.5,6.5,6.5h31.4c3.6,0,6.5-2.9,6.5-6.5
			V61.3c0-3.6-2.9-6.5-6.5-6.5H60.9z"/>
	</g>
	<g>
		<path class="st1" d="M86.2,93H67.1c-2.8,0-5-2.2-5-5V74.7c0-2.8,2.2-5,5-5h19.1c2.8,0,5,2.2,5,5V88C91.2,90.8,88.9,93,86.2,93z
			 M67.1,71.7c-1.7,0-3,1.3-3,3V88c0,1.7,1.3,3,3,3h19.1c1.7,0,3-1.3,3-3V74.7c0-1.7-1.3-3-3-3H67.1z"/>
	</g>
	<g>
		<g>
			<path class="st2" d="M76.6,88c-0.6,0-1-0.4-1-1V75.7c0-0.6,0.4-1,1-1s1,0.4,1,1V87C77.6,87.6,77.2,88,76.6,88z"/>
		</g>
		<g>
			<path class="st2" d="M82.3,82.4H71c-0.6,0-1-0.4-1-1s0.4-1,1-1h11.3c0.6,0,1,0.4,1,1S82.8,82.4,82.3,82.4z"/>
		</g>
	</g>
	<g>
		<g>
			<path class="st1" d="M91.7,41.4h-1.5c-0.6,0-1-0.4-1-1s0.4-1,1-1h1.5c0.6,0,1,0.4,1,1S92.2,41.4,91.7,41.4z"/>
		</g>
		<g>
			<path class="st1" d="M99.3,41.4h-1.5c-0.6,0-1-0.4-1-1s0.4-1,1-1h1.5c0.6,0,1,0.4,1,1S99.9,41.4,99.3,41.4z"/>
		</g>
		<g>
			<path class="st1" d="M107,41.4h-1.5c-0.6,0-1-0.4-1-1s0.4-1,1-1h1.5c0.6,0,1,0.4,1,1S107.5,41.4,107,41.4z"/>
		</g>
	</g>
	<g>
		<g>
			<path class="st1" d="M94.8,34.9h-1.5c-0.6,0-1-0.4-1-1s0.4-1,1-1h1.5c0.6,0,1,0.4,1,1S95.3,34.9,94.8,34.9z"/>
		</g>
		<g>
			<path class="st1" d="M102.4,34.9h-1.5c-0.6,0-1-0.4-1-1s0.4-1,1-1h1.5c0.6,0,1,0.4,1,1S102.9,34.9,102.4,34.9z"/>
		</g>
		<g>
			<path class="st1" d="M110,34.9h-1.5c-0.6,0-1-0.4-1-1s0.4-1,1-1h1.5c0.6,0,1,0.4,1,1S110.6,34.9,110,34.9z"/>
		</g>
		<g>
			<path class="st1" d="M94.8,47.8h-1.5c-0.6,0-1-0.4-1-1s0.4-1,1-1h1.5c0.6,0,1,0.4,1,1S95.3,47.8,94.8,47.8z"/>
		</g>
		<g>
			<path class="st1" d="M102.4,47.8h-1.5c-0.6,0-1-0.4-1-1s0.4-1,1-1h1.5c0.6,0,1,0.4,1,1S102.9,47.8,102.4,47.8z"/>
		</g>
		<g>
			<path class="st1" d="M110,47.8h-1.5c-0.6,0-1-0.4-1-1s0.4-1,1-1h1.5c0.6,0,1,0.4,1,1S110.6,47.8,110,47.8z"/>
		</g>
	</g>
</g>
</svg>
